{
    "output":                     "DP-2",
    "layer":                      "bottom",
    "position":                   "top",
    "height":                     26,
    "width":                      1920,
    "spacing":                    0,


    "modules-left":               ["custom/kde-workspaces", "custom/right-arrow"],
    "modules-center":             ["clock"],
    "modules-right":              ["pulseaudio", "custom/left-arrow", "custom/dashboard-toggle"],

    "custom/kde-workspaces": {
        "format":                 "{}",
        "tooltip":                false,
        "exec":                   "/home/shane/.config/waybar/scripts/kde_workspaces",
        "on-scroll-up":           "/home/shane/.config/waybar/scripts/kde_workspaces --next",
        "on-scroll-down":         "/home/shane/.config/waybar/scripts/kde_workspaces --previous"
    },

    "custom/left-arrow": {
        "format":                 "",
        "tooltip":                false
    },

    "custom/right-arrow": {
        "format":                 "",
        "tooltip":                false
    },

    "clock": {
        "timezone":               "Europe/Dublin",
        "format":                 "<span color=\"#523649\">..::</span> {:%I:%M %p} <span color=\"#523649\">::..</span>",
        "tooltip-format":         "<big>{:%Y %B}</big>\n<tt><small>{calendar}</small></tt>",
        "format-alt":             "<span color=\"#523649\">..::</span> {:%Y-%m-%d} <span color=\"#523649\">::..</span>"
    },

    "pulseaudio": {
        "scroll-step":            10,
        "format":                 "{icon}",
        "format-muted":           "🔇",
        "format-bluetooth":       "{icon} {volume}%",
        "format-bluetooth-muted": "🔇",

        "format-icons": {
            "headphones":         "",
            "handsfree":          "",
            "headset":            "",
            "phone":              "",
            "portable":           "",
            "car":                "",
            "default": [
                                  "<span color='#4D4B4E'>🔉 •</span><span color='#2F3945'>·········</span>",
                                  "<span color='#4D4B4E'>🔉 ••</span><span color='#2F3945'>········</span>",
                                  "<span color='#4D4B4E'>🔉 •••</span><span color='#2F3945'>·······</span>",
                                  "<span color='#4D4B4E'>🔉 •••</span><span color='#354948'>•</span><span color='#2F3945'>······</span>",
                                  "<span color='#4D4B4E'>🔉 •••</span><span color='#354948'>••</span><span color='#2F3945'>·····</span>",
                                  "<span color='#4D4B4E'>🔉 •••</span><span color='#354948'>•••</span><span color='#2F3945'>····</span>",
                                  "<span color='#4D4B4E'>🔉 •••</span><span color='#354948'>•••</span><span color='#0F5C51'>•</span><span color='#2F3945'>···</span>",
                                  "<span color='#4D4B4E'>🔉 •••</span><span color='#354948'>•••</span><span color='#0F5C51'>••</span><span color='#2F3945'>··</span>",
                                  "<span color='#4D4B4E'>🔉 •••</span><span color='#354948'>•••</span><span color='#0F5C51'>•••</span><span color='#2F3945'>·</span>",
                                  "<span color='#4D4B4E'>🔉 •••</span><span color='#354948'>•••</span><span color='#0F5C51'>••••</span>",
            ]
        }
    },

    "custom/dashboard-toggle": {
        "format":                  "{icon}",
        "on-click":                "/home/shane/.config/eww/scripts/openDashboard.sh",
        "format-icons": {
            "default":             ["☰"]
        },
        "tooltip":                false
    }
}


